riscv_pipelined/dump.vcd
$date
	Thu Apr 17 22:18:08 2025
$end
$version
	Icarus Verilog
$end
$timescale
	1s
$end
$scope module riscv_pipelined_testbench $end
$var wire 1 ! mem_wb_reg_write $end
$var wire 5 " mem_wb_rd [4:0] $end
$var wire 1 # mem_wb_mem_to_reg $end
$var wire 32 $ mem_wb_mem_data [31:0] $end
$var wire 32 % mem_wb_alu_result [31:0] $end
$var wire 32 & if_id_pc [31:0] $end
$var wire 32 ' if_id_instr [31:0] $end
$var wire 32 ( id_ex_rs2_data [31:0] $end
$var wire 32 ) id_ex_rs1_data [31:0] $end
$var wire 1 * id_ex_reg_write $end
$var wire 5 + id_ex_rd [4:0] $end
$var wire 32 , id_ex_pc [31:0] $end
$var wire 1 - id_ex_mem_write $end
$var wire 1 . id_ex_mem_to_reg $end
$var wire 1 / id_ex_mem_read $end
$var wire 32 0 id_ex_imm [31:0] $end
$var wire 1 1 id_ex_branch $end
$var wire 1 2 id_ex_alu_src $end
$var wire 4 3 id_ex_alu_op [3:0] $end
$var wire 32 4 ex_mem_rs2_data [31:0] $end
$var wire 1 5 ex_mem_reg_write $end
$var wire 5 6 ex_mem_rd [4:0] $end
$var wire 1 7 ex_mem_mem_write $end
$var wire 1 8 ex_mem_mem_to_reg $end
$var wire 1 9 ex_mem_mem_read $end
$var wire 1 : ex_mem_branch $end
$var wire 32 ; ex_mem_alu_result [31:0] $end
$var reg 1 < clk $end
$var reg 1 = rst_n $end
$scope module dut $end
$var wire 1 < clk $end
$var wire 1 : ex_mem_branch $end
$var wire 1 8 ex_mem_mem_to_reg $end
$var wire 1 7 ex_mem_mem_write $end
$var wire 5 > ex_mem_rd [4:0] $end
$var wire 1 5 ex_mem_reg_write $end
$var wire 32 ? ex_mem_rs2_data [31:0] $end
$var wire 1 / id_ex_mem_read $end
$var wire 1 . id_ex_mem_to_reg $end
$var wire 1 - id_ex_mem_write $end
$var wire 5 @ id_ex_rd [4:0] $end
$var wire 1 * id_ex_reg_write $end
$var wire 32 A if_id_pc [31:0] $end
$var wire 5 B mem_wb_rd [4:0] $end
$var wire 1 ! mem_wb_reg_write $end
$var wire 1 = rst_n $end
$var wire 32 C wb_data [31:0] $end
$var wire 1 D stall $end
$var wire 1 # mem_wb_mem_to_reg $end
$var wire 32 E mem_wb_mem_data [31:0] $end
$var wire 32 F mem_wb_alu_result [31:0] $end
$var wire 32 G mem_data [31:0] $end
$var wire 32 H if_pc [31:0] $end
$var wire 32 I if_instruction [31:0] $end
$var wire 32 J if_id_instr [31:0] $end
$var wire 32 K id_rs2_data [31:0] $end
$var wire 5 L id_rs2 [4:0] $end
$var wire 32 M id_rs1_data [31:0] $end
$var wire 5 N id_rs1 [4:0] $end
$var wire 1 O id_reg_write $end
$var wire 5 P id_rd [4:0] $end
$var wire 1 Q id_mem_write $end
$var wire 1 R id_mem_to_reg $end
$var wire 1 S id_mem_read $end
$var wire 32 T id_imm [31:0] $end
$var wire 32 U id_ex_rs2_data [31:0] $end
$var wire 32 V id_ex_rs1_data [31:0] $end
$var wire 32 W id_ex_pc [31:0] $end
$var wire 32 X id_ex_imm [31:0] $end
$var wire 1 1 id_ex_branch $end
$var wire 1 2 id_ex_alu_src $end
$var wire 4 Y id_ex_alu_op [3:0] $end
$var wire 1 Z id_branch $end
$var wire 1 [ id_alu_src $end
$var wire 4 \ id_alu_op [3:0] $end
$var wire 2 ] forward_b [1:0] $end
$var wire 2 ^ forward_a [1:0] $end
$var wire 1 _ ex_zero_flag $end
$var wire 1 9 ex_mem_mem_read $end
$var wire 32 ` ex_mem_alu_result [31:0] $end
$var wire 32 a ex_alu_result [31:0] $end
$var wire 32 b branch_target [31:0] $end
$var wire 1 c branch_taken $end
$var reg 32 d ex_mem_alu_result_reg [31:0] $end
$var reg 1 e ex_mem_branch_reg $end
$var reg 1 9 ex_mem_mem_read_reg $end
$var reg 1 f ex_mem_mem_to_reg_reg $end
$var reg 1 g ex_mem_mem_write_reg $end
$var reg 5 h ex_mem_rd_reg [4:0] $end
$var reg 1 i ex_mem_reg_write_reg $end
$var reg 32 j ex_mem_rs2_data_reg [31:0] $end
$var reg 4 k id_ex_alu_op_reg [3:0] $end
$var reg 1 2 id_ex_alu_src_reg $end
$var reg 1 1 id_ex_branch_reg $end
$var reg 3 l id_ex_funct3_reg [2:0] $end
$var reg 32 m id_ex_imm_reg [31:0] $end
$var reg 1 n id_ex_mem_read_reg $end
$var reg 1 o id_ex_mem_to_reg_reg $end
$var reg 1 p id_ex_mem_write_reg $end
$var reg 32 q id_ex_pc_reg [31:0] $end
$var reg 5 r id_ex_rd_reg [4:0] $end
$var reg 1 s id_ex_reg_write_reg $end
$var reg 32 t id_ex_rs1_data_reg [31:0] $end
$var reg 32 u id_ex_rs2_data_reg [31:0] $end
$var reg 32 v if_id_instr_reg [31:0] $end
$var reg 32 w if_id_pc_reg [31:0] $end
$var reg 32 x mem_wb_alu_result_reg [31:0] $end
$var reg 32 y mem_wb_mem_data_reg [31:0] $end
$var reg 1 # mem_wb_mem_to_reg_reg $end
$var reg 5 z mem_wb_rd_reg [4:0] $end
$var reg 1 { mem_wb_reg_write_reg $end
$scope module ex_stage_inst $end
$var wire 4 | alu_op [3:0] $end
$var wire 32 } alu_result [31:0] $end
$var wire 1 2 alu_src $end
$var wire 1 1 branch $end
$var wire 32 ~ ex_mem_alu_result [31:0] $end
$var wire 3 !" funct3 [2:0] $end
$var wire 32 "" imm [31:0] $end
$var wire 32 #" pc [31:0] $end
$var wire 32 $" rs1_data [31:0] $end
$var wire 32 %" rs2_data [31:0] $end
$var wire 1 _ zero_flag $end
$var wire 32 &" mem_wb_result [31:0] $end
$var wire 32 '" forwarded_rs2_data [31:0] $end
$var wire 32 (" forwarded_rs1_data [31:0] $end
$var wire 2 )" forward_b [1:0] $end
$var wire 2 *" forward_a [1:0] $end
$var wire 32 +" branch_target [31:0] $end
$var wire 1 c branch_taken $end
$var wire 32 ," alu_operand_2 [31:0] $end
$var reg 32 -" alu_result_reg [31:0] $end
$scope function check_branch_condition $end
$var reg 1 ." branch_enable $end
$var reg 1 /" is_zero $end
$var reg 4 0" operation [3:0] $end
$upscope $end
$scope function execute_alu $end
$var reg 32 1" operand1 [31:0] $end
$var reg 32 2" operand2 [31:0] $end
$var reg 4 3" operation [3:0] $end
$upscope $end
$scope function get_forwarded_data $end
$var reg 32 4" ex_mem_data [31:0] $end
$var reg 2 5" forward_sel [1:0] $end
$var reg 32 6" mem_wb_data [31:0] $end
$var reg 32 7" original_data [31:0] $end
$upscope $end
$upscope $end
$scope module hazard_control_inst $end
$var wire 1 / ex_mem_read $end
$var wire 5 8" ex_rd [4:0] $end
$var wire 5 9" mem_rd [4:0] $end
$var wire 1 5 mem_reg_write $end
$var wire 5 :" wb_rd [4:0] $end
$var wire 1 ! wb_reg_write $end
$var wire 5 ;" id_rs2 [4:0] $end
$var wire 5 <" id_rs1 [4:0] $end
$var reg 2 =" forward_a [1:0] $end
$var reg 2 >" forward_b [1:0] $end
$var reg 1 D stall $end
$scope function detect_load_use_hazard $end
$var reg 5 ?" ex_dest [4:0] $end
$var reg 1 @" is_load $end
$var reg 5 A" rs1 [4:0] $end
$var reg 5 B" rs2 [4:0] $end
$upscope $end
$scope function determine_forwarding $end
$var reg 5 C" mem_dest [4:0] $end
$var reg 1 D" mem_write_enable $end
$var reg 5 E" rs [4:0] $end
$var reg 5 F" wb_dest [4:0] $end
$var reg 1 G" wb_write_enable $end
$upscope $end
$upscope $end
$scope module id_stage_inst $end
$var wire 1 < clk $end
$var wire 32 H" instruction [31:0] $end
$var wire 32 I" pc [31:0] $end
$var wire 1 = rst_n $end
$var wire 1 D stall $end
$var wire 5 J" wb_rd [4:0] $end
$var wire 1 ! wb_reg_write $end
$var wire 32 K" wb_data [31:0] $end
$var wire 7 L" opcode [6:0] $end
$var wire 7 M" funct7 [6:0] $end
$var wire 3 N" funct3 [2:0] $end
$var reg 4 O" alu_op [3:0] $end
$var reg 1 [ alu_src $end
$var reg 1 Z branch $end
$var reg 32 P" imm [31:0] $end
$var reg 1 S mem_read $end
$var reg 1 R mem_to_reg $end
$var reg 1 Q mem_write $end
$var reg 5 Q" rd [4:0] $end
$var reg 1 O reg_write $end
$var reg 5 R" rs1 [4:0] $end
$var reg 32 S" rs1_data [31:0] $end
$var reg 5 T" rs2 [4:0] $end
$var reg 32 U" rs2_data [31:0] $end
$var integer 32 V" i [31:0] $end
$scope function calculate_immediate $end
$var reg 32 W" instr [31:0] $end
$var reg 7 X" opcode [6:0] $end
$upscope $end
$scope function get_funct3 $end
$var reg 32 Y" instr [31:0] $end
$upscope $end
$scope function get_funct7 $end
$var reg 32 Z" instr [31:0] $end
$upscope $end
$scope function get_opcode $end
$var reg 32 [" instr [31:0] $end
$upscope $end
$upscope $end
$scope module if_stage_inst $end
$var wire 1 c branch_taken $end
$var wire 32 \" branch_target [31:0] $end
$var wire 1 < clk $end
$var wire 1 = rst_n $end
$var wire 1 D stall $end
$var wire 32 ]" instruction [31:0] $end
$var reg 32 ^" pc [31:0] $end
$scope function calculate_next_pc $end
$var reg 1 _" branch_taken $end
$var reg 32 `" branch_target [31:0] $end
$var reg 32 a" current_pc [31:0] $end
$upscope $end
$scope function is_valid_address $end
$var reg 32 b" address [31:0] $end
$upscope $end
$scope function read_instruction $end
$var reg 32 c" address [31:0] $end
$upscope $end
$upscope $end
$scope module mem_stage_inst $end
$var wire 32 d" alu_result [31:0] $end
$var wire 1 < clk $end
$var wire 1 9 mem_read $end
$var wire 1 7 mem_write $end
$var wire 32 e" rs2_data [31:0] $end
$var wire 1 = rst_n $end
$var wire 32 f" mem_data [31:0] $end
$var integer 32 g" i [31:0] $end
$scope function is_valid_address $end
$var reg 32 h" address [31:0] $end
$upscope $end
$scope function read_memory $end
$var reg 32 i" address [31:0] $end
$upscope $end
$scope function write_memory $end
$var reg 32 j" address [31:0] $end
$var reg 32 k" write_data [31:0] $end
$upscope $end
$upscope $end
$scope module wb_stage_inst $end
$var wire 32 l" alu_result [31:0] $end
$var wire 32 m" mem_data [31:0] $end
$var wire 1 # mem_to_reg $end
$var wire 32 n" wb_data [31:0] $end
$scope function select_write_data $end
$var reg 32 o" alu_result [31:0] $end
$var reg 32 p" mem_data [31:0] $end
$var reg 1 q" mem_to_reg $end
$upscope $end
$upscope $end
$upscope $end
$upscope $end
$enddefinitions $end
#0
$dumpvars
0q"
b0 p"
b0 o"
b0 n"
b0 m"
b0 l"
bx k"
bx j"
b0 i"
b0 h"
b10000000000 g"
b0 f"
b0 e"
b0 d"
b0 c"
b0 b"
bx a"
bx `"
x_"
b0 ^"
b10100000000000010010011 ]"
b0 \"
b0 ["
b0 Z"
b0 Y"
b0 X"
b0 W"
b100000 V"
b0 U"
b0 T"
b0 S"
b0 R"
b0 Q"
b0 P"
b0 O"
b0 N"
b0 M"
b0 L"
b0 K"
b0 J"
b0 I"
b0 H"
0G"
b0 F"
b0 E"
0D"
b0 C"
b0 B"
b0 A"
0@"
b0 ?"
b0 >"
b0 ="
b0 <"
b0 ;"
b0 :"
b0 9"
b0 8"
b0 7"
b0 6"
b0 5"
b0 4"
b0 3"
b0 2"
b0 1"
b0 0"
1/"
0."
b0 -"
b0 ,"
b0 +"
b0 *"
b0 )"
b0 ("
b0 '"
b0 &"
b0 %"
b0 $"
b0 #"
b0 ""
b0 !"
b0 ~
b0 }
b0 |
0{
b0 z
b0 y
b0 x
b0 w
b0 v
b0 u
b0 t
0s
b0 r
b0 q
0p
0o
0n
b0 m
b0 l
b0 k
b0 j
0i
b0 h
0g
0f
0e
b0 d
0c
b0 b
b0 a
b0 `
1_
b0 ^
b0 ]
b0 \
0[
0Z
b0 Y
b0 X
b0 W
b0 V
b0 U
b0 T
0S
0R
0Q
b0 P
0O
b0 N
b0 M
b0 L
b0 K
b0 J
b10100000000000010010011 I
b0 H
b0 G
b0 F
b0 E
0D
b0 C
b0 B
b0 A
b0 @
b0 ?
b0 >
0=
0<
b0 ;
0:
09
08
07
b0 6
05
b0 4
b0 3
02
01
b0 0
0/
0.
0-
b0 ,
b0 +
0*
b0 )
b0 (
b0 '
b0 &
b0 %
b0 $
0#
b0 "
0!
$end
#5
1<
#10
0<
#15
1<
#20
0<
1=
#25
b101 E"
b101 B"
b1000000000000100010011 I
b1000000000000100010011 ]"
1O
1[
b101 T
b101 P"
b10100000000000010010011 W"
b10011 X"
b1 P
b1 Q"
b101 L
b101 ;"
b101 T"
b10011 L"
b10100000000000010010011 ["
b10100000000000010010011 Y"
b10100000000000010010011 Z"
b100 b"
b100 c"
b10100000000000010010011 '
b10100000000000010010011 J
b10100000000000010010011 v
b10100000000000010010011 H"
b100 H
b100 ^"
b0 a"
0_"
b0 `"
1<
#30
0<
#35
0/"
b1000001000000110110011 I
b1000001000000110110011 ]"
b10 E"
b10 B"
0_
b101 a
b101 }
b101 -"
b101 2"
b1000 b"
b1000 c"
b10 T
b10 P"
b1000000000000100010011 W"
b10 P
b10 Q"
b10 L
b10 ;"
b10 T"
b1000000000000100010011 ["
b1000000000000100010011 Y"
b1000000000000100010011 Z"
b101 ,"
b1 ?"
b1000 H
b1000 ^"
b1000000000000100010011 '
b1000000000000100010011 J
b1000000000000100010011 v
b1000000000000100010011 H"
b100 &
b100 A
b100 I"
b100 w
12
1*
1s
b1 +
b1 @
b1 8"
b1 r
b101 b
b101 +"
b101 \"
b101 0
b101 X
b101 m
b101 ""
b100 a"
1<
#40
0<
#45
b101 1"
b101 ("
b10 5"
b111 a
b111 }
b111 -"
b10 2"
b1100010010001000110011 I
b1100010010001000110011 ]"
b10 ^
b10 *"
b10 ="
b10 E"
b1 C"
1D"
b101 4"
b101 h"
b101 i"
b1 A"
b10 ?"
b10 ,"
0[
b0 T
b0 P"
b1000001000000110110011 W"
b110011 X"
b11 P
b11 Q"
b1 N
b1 <"
b1 R"
b110011 L"
b1000001000000110110011 ["
b1000001000000110110011 Y"
b1000001000000110110011 Z"
b1100 b"
b1100 c"
15
1i
b1 6
b1 >
b1 9"
b1 h
b101 ;
b101 `
b101 d
b101 ~
b101 d"
b10 +
b10 @
b10 8"
b10 r
b10 0
b10 X
b10 m
b10 ""
b110 b
b110 +"
b110 \"
b100 ,
b100 W
b100 q
b100 #"
b1000001000000110110011 '
b1000001000000110110011 J
b1000001000000110110011 v
b1000001000000110110011 H"
b1000 &
b1000 A
b1000 I"
b1000 w
b1100 H
b1100 ^"
b1000 a"
b101 `"
1<
#50
0<
#55
b111 1"
b111 ("
bx I
bx ]"
b10 A"
b11 B"
b111 a
b111 }
b111 -"
b0 2"
b10000 b"
b10000 c"
b11 \
b11 O"
b1100010010001000110011 W"
b100 P
b100 Q"
b11 L
b11 ;"
b11 T"
b10 N
b10 <"
b10 R"
b1100010010001000110011 ["
b10 N"
b1100010010001000110011 Y"
b1100010010001000110011 Z"
b11 ?"
b0 ,"
b0 5"
b0 '"
b101 6"
b111 4"
b111 h"
b111 i"
b0 ]
b0 )"
b0 >"
b10 ^
b10 *"
b10 ="
b11 E"
b10 C"
b1 F"
1G"
b101 C
b101 &"
b101 K"
b101 n"
b101 o"
b10000 H
b10000 ^"
b1100010010001000110011 '
b1100010010001000110011 J
b1100010010001000110011 v
b1100010010001000110011 H"
b1100 &
b1100 A
b1100 I"
b1100 w
02
b11 +
b11 @
b11 8"
b11 r
b0 0
b0 X
b0 m
b0 ""
b1000 b
b1000 +"
b1000 \"
b1000 ,
b1000 W
b1000 q
b1000 #"
b10 6
b10 >
b10 9"
b10 h
b111 ;
b111 `
b111 d
b111 ~
b111 d"
1!
1{
b1 "
b1 B
b1 :"
b1 J"
b1 z
b101 %
b101 F
b101 x
b101 l"
b1100 a"
b110 `"
1<
#60
0<
#65
b0 1"
b0 ("
b111 6"
1/"
b111 C
b111 &"
b111 K"
b111 n"
b111 o"
b0 ^
b0 *"
b0 ="
bx E"
b11 C"
b10 F"
1_
b0 a
b0 }
b0 -"
b11 3"
b11 0"
bx A"
bx B"
b100 ?"
bx K
bx U"
bx M
bx S"
0O
b0 \
b0 O"
bx W"
bx X"
bx P
bx Q"
bx L
bx ;"
bx T"
bx N
bx <"
bx R"
bx L"
bx ["
bx N"
bx Y"
bx M"
bx Z"
b10100 b"
b10100 c"
b10 "
b10 B
b10 :"
b10 J"
b10 z
b111 %
b111 F
b111 x
b111 l"
b11 6
b11 >
b11 9"
b11 h
b10 l
b10 !"
b11 3
b11 Y
b11 k
b11 |
b100 +
b100 @
b100 8"
b100 r
b1100 b
b1100 +"
b1100 \"
b1100 ,
b1100 W
b1100 q
b1100 #"
bx '
bx J
bx v
bx H"
b10000 &
b10000 A
b10000 I"
b10000 w
b10100 H
b10100 ^"
b10000 a"
b1000 `"
1<
#70
0<
#75
bx 2"
x/"
bx ,"
b11000 b"
b11000 c"
x_
bx a
bx }
bx -"
bx 1"
b0 3"
b0 0"
bx ?"
bx ("
bx '"
b0 4"
bx 7"
b0 h"
b0 i"
b100 C"
b11 F"
b11000 H
b11000 ^"
b10100 &
b10100 A
b10100 I"
b10100 w
bx l
bx !"
b0 3
b0 Y
b0 k
b0 |
0*
0s
bx +
bx @
bx 8"
bx r
bx (
bx U
bx u
bx %"
bx )
bx V
bx t
bx $"
b10000 b
b10000 +"
b10000 \"
b10000 ,
b10000 W
b10000 q
b10000 #"
b100 6
b100 >
b100 9"
b100 h
b0 ;
b0 `
b0 d
b0 ~
b0 d"
b11 "
b11 B
b11 :"
b11 J"
b11 z
b10100 a"
b1100 `"
1<
#80
0<
#85
b0 6"
b0 C
b0 &"
b0 K"
b0 n"
b0 o"
bx C"
0D"
b100 F"
bx 4"
bx h"
bx i"
b11100 b"
b11100 c"
b100 "
b100 B
b100 :"
b100 J"
b100 z
b0 %
b0 F
b0 x
b0 l"
05
0i
bx 6
bx >
bx 9"
bx h
bx 4
bx ?
bx e"
bx j
bx ;
bx `
bx d
bx ~
bx d"
b10100 b
b10100 +"
b10100 \"
b10100 ,
b10100 W
b10100 q
b10100 #"
b11000 &
b11000 A
b11000 I"
b11000 w
b11100 H
b11100 ^"
b11000 a"
b10000 `"
1<
#90
0<
#95
bx 6"
b100000 b"
b100000 c"
bx F"
0G"
bx C
bx &"
bx K"
bx n"
bx o"
b100000 H
b100000 ^"
b11100 &
b11100 A
b11100 I"
b11100 w
b11000 b
b11000 +"
b11000 \"
b11000 ,
b11000 W
b11000 q
b11000 #"
0!
0{
bx "
bx B
bx :"
bx J"
bx z
bx %
bx F
bx x
bx l"
b11100 a"
b10100 `"
1<
#100
0<
#105
b100100 b"
b100100 c"
b11100 b
b11100 +"
b11100 \"
b11100 ,
b11100 W
b11100 q
b11100 #"
b100000 &
b100000 A
b100000 I"
b100000 w
b100100 H
b100100 ^"
b100000 a"
b11000 `"
1<
#110
0<
#115
b101000 b"
b101000 c"
b101000 H
b101000 ^"
b100100 &
b100100 A
b100100 I"
b100100 w
b100000 b
b100000 +"
b100000 \"
b100000 ,
b100000 W
b100000 q
b100000 #"
b100100 a"
b11100 `"
1<
#120
0<
#125
b101100 b"
b101100 c"
b100100 b
b100100 +"
b100100 \"
b100100 ,
b100100 W
b100100 q
b100100 #"
b101000 &
b101000 A
b101000 I"
b101000 w
b101100 H
b101100 ^"
b101000 a"
b100000 `"
1<
#130
0<
#135
b110000 b"
b110000 c"
b110000 H
b110000 ^"
b101100 &
b101100 A
b101100 I"
b101100 w
b101000 b
b101000 +"
b101000 \"
b101000 ,
b101000 W
b101000 q
b101000 #"
b101100 a"
b100100 `"
1<
#140
0<
#145
b110100 b"
b110100 c"
b101100 b
b101100 +"
b101100 \"
b101100 ,
b101100 W
b101100 q
b101100 #"
b110000 &
b110000 A
b110000 I"
b110000 w
b110100 H
b110100 ^"
b110000 a"
b101000 `"
1<
#150
0<
#155
b111000 b"
b111000 c"
b111000 H
b111000 ^"
b110100 &
b110100 A
b110100 I"
b110100 w
b110000 b
b110000 +"
b110000 \"
b110000 ,
b110000 W
b110000 q
b110000 #"
b110100 a"
b101100 `"
1<
#160
0<
#165
b111100 b"
b111100 c"
b110100 b
b110100 +"
b110100 \"
b110100 ,
b110100 W
b110100 q
b110100 #"
b111000 &
b111000 A
b111000 I"
b111000 w
b111100 H
b111100 ^"
b111000 a"
b110000 `"
1<
#170
0<
#175
b1000000 b"
b1000000 c"
b1000000 H
b1000000 ^"
b111100 &
b111100 A
b111100 I"
b111100 w
b111000 b
b111000 +"
b111000 \"
b111000 ,
b111000 W
b111000 q
b111000 #"
b111100 a"
b110100 `"
1<
#180
0<
#185
b1000100 b"
b1000100 c"
b111100 b
b111100 +"
b111100 \"
b111100 ,
b111100 W
b111100 q
b111100 #"
b1000000 &
b1000000 A
b1000000 I"
b1000000 w
b1000100 H
b1000100 ^"
b1000000 a"
b111000 `"
1<
#190
0<
#195
b1001000 b"
b1001000 c"
b1001000 H
b1001000 ^"
b1000100 &
b1000100 A
b1000100 I"
b1000100 w
b1000000 b
b1000000 +"
b1000000 \"
b1000000 ,
b1000000 W
b1000000 q
b1000000 #"
b1000100 a"
b111100 `"
1<
#200
0<
#205
b1001100 b"
b1001100 c"
b1000100 b
b1000100 +"
b1000100 \"
b1000100 ,
b1000100 W
b1000100 q
b1000100 #"
b1001000 &
b1001000 A
b1001000 I"
b1001000 w
b1001100 H
b1001100 ^"
b1001000 a"
b1000000 `"
1<
#210
0<
#215
b1010000 b"
b1010000 c"
b1010000 H
b1010000 ^"
b1001100 &
b1001100 A
b1001100 I"
b1001100 w
b1001000 b
b1001000 +"
b1001000 \"
b1001000 ,
b1001000 W
b1001000 q
b1001000 #"
b1001100 a"
b1000100 `"
1<
#220
0<
#225
b1010100 b"
b1010100 c"
b1001100 b
b1001100 +"
b1001100 \"
b1001100 ,
b1001100 W
b1001100 q
b1001100 #"
b1010000 &
b1010000 A
b1010000 I"
b1010000 w
b1010100 H
b1010100 ^"
b1010000 a"
b1001000 `"
1<
#230
0<
#235
b1011000 b"
b1011000 c"
b1011000 H
b1011000 ^"
b1010100 &
b1010100 A
b1010100 I"
b1010100 w
b1010000 b
b1010000 +"
b1010000 \"
b1010000 ,
b1010000 W
b1010000 q
b1010000 #"
b1010100 a"
b1001100 `"
1<
#240
0<
#245
b1011100 b"
b1011100 c"
b1010100 b
b1010100 +"
b1010100 \"
b1010100 ,
b1010100 W
b1010100 q
b1010100 #"
b1011000 &
b1011000 A
b1011000 I"
b1011000 w
b1011100 H
b1011100 ^"
b1011000 a"
b1010000 `"
1<
#250
0<
#255
b1100000 b"
b1100000 c"
b1100000 H
b1100000 ^"
b1011100 &
b1011100 A
b1011100 I"
b1011100 w
b1011000 b
b1011000 +"
b1011000 \"
b1011000 ,
b1011000 W
b1011000 q
b1011000 #"
b1011100 a"
b1010100 `"
1<
#260
0<
#265
b1100100 b"
b1100100 c"
b1011100 b
b1011100 +"
b1011100 \"
b1011100 ,
b1011100 W
b1011100 q
b1011100 #"
b1100000 &
b1100000 A
b1100000 I"
b1100000 w
b1100100 H
b1100100 ^"
b1100000 a"
b1011000 `"
1<
#270
0<
#275
b1101000 b"
b1101000 c"
b1101000 H
b1101000 ^"
b1100100 &
b1100100 A
b1100100 I"
b1100100 w
b1100000 b
b1100000 +"
b1100000 \"
b1100000 ,
b1100000 W
b1100000 q
b1100000 #"
b1100100 a"
b1011100 `"
1<
#280
0<
#285
b1101100 b"
b1101100 c"
b1100100 b
b1100100 +"
b1100100 \"
b1100100 ,
b1100100 W
b1100100 q
b1100100 #"
b1101000 &
b1101000 A
b1101000 I"
b1101000 w
b1101100 H
b1101100 ^"
b1101000 a"
b1100000 `"
1<
#290
0<
#295
b1110000 b"
b1110000 c"
b1110000 H
b1110000 ^"
b1101100 &
b1101100 A
b1101100 I"
b1101100 w
b1101000 b
b1101000 +"
b1101000 \"
b1101000 ,
b1101000 W
b1101000 q
b1101000 #"
b1101100 a"
b1100100 `"
1<
#300
0<
#305
b1110100 b"
b1110100 c"
b1101100 b
b1101100 +"
b1101100 \"
b1101100 ,
b1101100 W
b1101100 q
b1101100 #"
b1110000 &
b1110000 A
b1110000 I"
b1110000 w
b1110100 H
b1110100 ^"
b1110000 a"
b1101000 `"
1<
#310
0<
#315
b1111000 b"
b1111000 c"
b1111000 H
b1111000 ^"
b1110100 &
b1110100 A
b1110100 I"
b1110100 w
b1110000 b
b1110000 +"
b1110000 \"
b1110000 ,
b1110000 W
b1110000 q
b1110000 #"
b1110100 a"
b1101100 `"
1<
#320
0<
#325
b1111100 b"
b1111100 c"
b1110100 b
b1110100 +"
b1110100 \"
b1110100 ,
b1110100 W
b1110100 q
b1110100 #"
b1111000 &
b1111000 A
b1111000 I"
b1111000 w
b1111100 H
b1111100 ^"
b1111000 a"
b1110000 `"
1<
#330
0<
#335
b10000000 b"
b10000000 c"
b10000000 H
b10000000 ^"
b1111100 &
b1111100 A
b1111100 I"
b1111100 w
b1111000 b
b1111000 +"
b1111000 \"
b1111000 ,
b1111000 W
b1111000 q
b1111000 #"
b1111100 a"
b1110100 `"
1<
#340
0<
#345
b10000100 b"
b10000100 c"
b1111100 b
b1111100 +"
b1111100 \"
b1111100 ,
b1111100 W
b1111100 q
b1111100 #"
b10000000 &
b10000000 A
b10000000 I"
b10000000 w
b10000100 H
b10000100 ^"
b10000000 a"
b1111000 `"
1<
#350
0<
#355
b10001000 b"
b10001000 c"
b10001000 H
b10001000 ^"
b10000100 &
b10000100 A
b10000100 I"
b10000100 w
b10000000 b
b10000000 +"
b10000000 \"
b10000000 ,
b10000000 W
b10000000 q
b10000000 #"
b10000100 a"
b1111100 `"
1<
#360
0<
#365
b10001100 b"
b10001100 c"
b10000100 b
b10000100 +"
b10000100 \"
b10000100 ,
b10000100 W
b10000100 q
b10000100 #"
b10001000 &
b10001000 A
b10001000 I"
b10001000 w
b10001100 H
b10001100 ^"
b10001000 a"
b10000000 `"
1<
#370
0<
#375
b10010000 b"
b10010000 c"
b10010000 H
b10010000 ^"
b10001100 &
b10001100 A
b10001100 I"
b10001100 w
b10001000 b
b10001000 +"
b10001000 \"
b10001000 ,
b10001000 W
b10001000 q
b10001000 #"
b10001100 a"
b10000100 `"
1<
#380
0<
#385
b10010100 b"
b10010100 c"
b10001100 b
b10001100 +"
b10001100 \"
b10001100 ,
b10001100 W
b10001100 q
b10001100 #"
b10010000 &
b10010000 A
b10010000 I"
b10010000 w
b10010100 H
b10010100 ^"
b10010000 a"
b10001000 `"
1<
#390
0<
#395
b10011000 b"
b10011000 c"
b10011000 H
b10011000 ^"
b10010100 &
b10010100 A
b10010100 I"
b10010100 w
b10010000 b
b10010000 +"
b10010000 \"
b10010000 ,
b10010000 W
b10010000 q
b10010000 #"
b10010100 a"
b10001100 `"
1<
#400
0<
#405
b10011100 b"
b10011100 c"
b10010100 b
b10010100 +"
b10010100 \"
b10010100 ,
b10010100 W
b10010100 q
b10010100 #"
b10011000 &
b10011000 A
b10011000 I"
b10011000 w
b10011100 H
b10011100 ^"
b10011000 a"
b10010000 `"
1<
#410
0<
#415
b10100000 b"
b10100000 c"
b10100000 H
b10100000 ^"
b10011100 &
b10011100 A
b10011100 I"
b10011100 w
b10011000 b
b10011000 +"
b10011000 \"
b10011000 ,
b10011000 W
b10011000 q
b10011000 #"
b10011100 a"
b10010100 `"
1<
#420
0<
#425
b10100100 b"
b10100100 c"
b10011100 b
b10011100 +"
b10011100 \"
b10011100 ,
b10011100 W
b10011100 q
b10011100 #"
b10100000 &
b10100000 A
b10100000 I"
b10100000 w
b10100100 H
b10100100 ^"
b10100000 a"
b10011000 `"
1<
#430
0<
#435
b10101000 b"
b10101000 c"
b10101000 H
b10101000 ^"
b10100100 &
b10100100 A
b10100100 I"
b10100100 w
b10100000 b
b10100000 +"
b10100000 \"
b10100000 ,
b10100000 W
b10100000 q
b10100000 #"
b10100100 a"
b10011100 `"
1<
#440
0<
#445
b10101100 b"
b10101100 c"
b10100100 b
b10100100 +"
b10100100 \"
b10100100 ,
b10100100 W
b10100100 q
b10100100 #"
b10101000 &
b10101000 A
b10101000 I"
b10101000 w
b10101100 H
b10101100 ^"
b10101000 a"
b10100000 `"
1<
#450
0<
#455
b10110000 b"
b10110000 c"
b10110000 H
b10110000 ^"
b10101100 &
b10101100 A
b10101100 I"
b10101100 w
b10101000 b
b10101000 +"
b10101000 \"
b10101000 ,
b10101000 W
b10101000 q
b10101000 #"
b10101100 a"
b10100100 `"
1<
#460
0<
#465
b10110100 b"
b10110100 c"
b10101100 b
b10101100 +"
b10101100 \"
b10101100 ,
b10101100 W
b10101100 q
b10101100 #"
b10110000 &
b10110000 A
b10110000 I"
b10110000 w
b10110100 H
b10110100 ^"
b10110000 a"
b10101000 `"
1<
#470
0<
#475
b10111000 b"
b10111000 c"
b10111000 H
b10111000 ^"
b10110100 &
b10110100 A
b10110100 I"
b10110100 w
b10110000 b
b10110000 +"
b10110000 \"
b10110000 ,
b10110000 W
b10110000 q
b10110000 #"
b10110100 a"
b10101100 `"
1<
#480
0<
#485
b10111100 b"
b10111100 c"
b10110100 b
b10110100 +"
b10110100 \"
b10110100 ,
b10110100 W
b10110100 q
b10110100 #"
b10111000 &
b10111000 A
b10111000 I"
b10111000 w
b10111100 H
b10111100 ^"
b10111000 a"
b10110000 `"
1<
#490
0<
#495
b11000000 b"
b11000000 c"
b11000000 H
b11000000 ^"
b10111100 &
b10111100 A
b10111100 I"
b10111100 w
b10111000 b
b10111000 +"
b10111000 \"
b10111000 ,
b10111000 W
b10111000 q
b10111000 #"
b10111100 a"
b10110100 `"
1<
#500
0<
